asgiref==3.5.2
click==8.1.3
Django==4.0.5
django-rest-framework==0.1.0
djangorestframework==3.13.1
docType==0.22
joblib==1.1.0
nltk==3.7
numpy==1.22.4
pytz==2022.1
regex==2022.6.2
scikit-learn==1.1.1
scipy==1.8.1
sklearn==0.0
soupsieve==2.3.2.post1
sqlparse==0.4.2
threadpoolctl==3.1.0
tqdm==4.64.0
